\relax 
\providecommand\hyper@newdestlabel[2]{}
\providecommand\HyperFirstAtBeginDocument{\AtBeginDocument}
\HyperFirstAtBeginDocument{\ifx\hyper@anchor\@undefined
\global\let\oldcontentsline\contentsline
\gdef\contentsline#1#2#3#4{\oldcontentsline{#1}{#2}{#3}}
\global\let\oldnewlabel\newlabel
\gdef\newlabel#1#2{\newlabelxx{#1}#2}
\gdef\newlabelxx#1#2#3#4#5#6{\oldnewlabel{#1}{{#2}{#3}}}
\AtEndDocument{\ifx\hyper@anchor\@undefined
\let\contentsline\oldcontentsline
\let\newlabel\oldnewlabel
\fi}
\fi}
\global\let\hyper@last\relax 
\gdef\HyperFirstAtBeginDocument#1{#1}
\providecommand\HyField@AuxAddToFields[1]{}
\providecommand\HyField@AuxAddToCoFields[2]{}
\providecommand \oddpage@label [2]{}
\@writefile{toc}{\@ifundefined {etoctocstyle}{\let \etoc@startlocaltoc \@gobble \let \etoc@settocdepth \@gobble \let \etoc@depthtag \@gobble \let \etoc@setlocaltop \@gobble }{}}
\@writefile{toc}{\contentsline {chapter}{\numberline {1}Hierarchical Index}{1}{chapter.1}\protected@file@percent }
\@writefile{lof}{\addvspace {10\p@ }}
\@writefile{lot}{\addvspace {10\p@ }}
\@writefile{toc}{\contentsline {section}{\numberline {1.1}Class Hierarchy}{1}{section.1.1}\protected@file@percent }
\@writefile{toc}{\contentsline {chapter}{\numberline {2}Class Index}{3}{chapter.2}\protected@file@percent }
\@writefile{lof}{\addvspace {10\p@ }}
\@writefile{lot}{\addvspace {10\p@ }}
\@writefile{toc}{\contentsline {section}{\numberline {2.1}Class List}{3}{section.2.1}\protected@file@percent }
\@writefile{toc}{\contentsline {chapter}{\numberline {3}File Index}{5}{chapter.3}\protected@file@percent }
\@writefile{lof}{\addvspace {10\p@ }}
\@writefile{lot}{\addvspace {10\p@ }}
\@writefile{toc}{\contentsline {section}{\numberline {3.1}File List}{5}{section.3.1}\protected@file@percent }
\@writefile{toc}{\contentsline {chapter}{\numberline {4}Class Documentation}{7}{chapter.4}\protected@file@percent }
\@writefile{lof}{\addvspace {10\p@ }}
\@writefile{lot}{\addvspace {10\p@ }}
\@writefile{toc}{\contentsline {section}{\numberline {4.1}Cell Class Reference}{7}{section.4.1}\protected@file@percent }
\newlabel{class_cell}{{4.1}{7}{Cell Class Reference}{section.4.1}{}}
\@writefile{toc}{\contentsline {subsection}{\numberline {4.1.1}Detailed Description}{8}{subsection.4.1.1}\protected@file@percent }
\@writefile{toc}{\contentsline {subsection}{\numberline {4.1.2}Member Function Documentation}{8}{subsection.4.1.2}\protected@file@percent }
\newlabel{class_cell_a14bc4838ca18a94bfc1d9b0ddc3c1800}{{4.1.2}{8}{Member Function Documentation}{subsection.4.1.2}{}}
\@writefile{toc}{\contentsline {subsubsection}{\numberline {4.1.2.1}CellClickedEventHandler()}{8}{subsubsection.4.1.2.1}\protected@file@percent }
\newlabel{class_cell_aea23b0b78cc26885757be1b94cdddb32}{{4.1.2.1}{8}{\texorpdfstring {CellClickedEventHandler()}{CellClickedEventHandler()}}{subsubsection.4.1.2.1}{}}
\@writefile{toc}{\contentsline {subsubsection}{\numberline {4.1.2.2}CellHoverEventHandler()}{8}{subsubsection.4.1.2.2}\protected@file@percent }
\newlabel{class_cell_aa66004a7b67b83c38d37a041ad8a9504}{{4.1.2.2}{8}{\texorpdfstring {CellHoverEventHandler()}{CellHoverEventHandler()}}{subsubsection.4.1.2.2}{}}
\@writefile{toc}{\contentsline {subsubsection}{\numberline {4.1.2.3}OnMouseDown()}{9}{subsubsection.4.1.2.3}\protected@file@percent }
\newlabel{class_cell_a11d20a70f32f2f1d71a50fc2291c0613}{{4.1.2.3}{9}{\texorpdfstring {OnMouseDown()}{OnMouseDown()}}{subsubsection.4.1.2.3}{}}
\@writefile{toc}{\contentsline {subsubsection}{\numberline {4.1.2.4}OnMouseEnter()}{9}{subsubsection.4.1.2.4}\protected@file@percent }
\newlabel{class_cell_aef370b2171c21a535dbd6e42f36976f1}{{4.1.2.4}{9}{\texorpdfstring {OnMouseEnter()}{OnMouseEnter()}}{subsubsection.4.1.2.4}{}}
\@writefile{toc}{\contentsline {subsubsection}{\numberline {4.1.2.5}OnMouseExit()}{9}{subsubsection.4.1.2.5}\protected@file@percent }
\newlabel{class_cell_ac8b997e51912c2711cb1fe152809a8bc}{{4.1.2.5}{9}{\texorpdfstring {OnMouseExit()}{OnMouseExit()}}{subsubsection.4.1.2.5}{}}
\@writefile{toc}{\contentsline {subsubsection}{\numberline {4.1.2.6}RaiseCellClickedEvent()}{9}{subsubsection.4.1.2.6}\protected@file@percent }
\newlabel{class_cell_ab0b1ffbdeea0b87e974ab0c04afe66f3}{{4.1.2.6}{9}{\texorpdfstring {RaiseCellClickedEvent()}{RaiseCellClickedEvent()}}{subsubsection.4.1.2.6}{}}
\@writefile{toc}{\contentsline {subsubsection}{\numberline {4.1.2.7}RaiseCellHoverEvent()}{9}{subsubsection.4.1.2.7}\protected@file@percent }
\newlabel{class_cell_a0ed7eabe6981c4bed93446c285e5140d}{{4.1.2.7}{9}{\texorpdfstring {RaiseCellHoverEvent()}{RaiseCellHoverEvent()}}{subsubsection.4.1.2.7}{}}
\@writefile{toc}{\contentsline {subsubsection}{\numberline {4.1.2.8}SetIndexes()}{9}{subsubsection.4.1.2.8}\protected@file@percent }
\@writefile{toc}{\contentsline {subsection}{\numberline {4.1.3}Member Data Documentation}{10}{subsection.4.1.3}\protected@file@percent }
\newlabel{class_cell_a9afb742bd36ef5a7be0819df1e5b1486}{{4.1.3}{10}{Member Data Documentation}{subsection.4.1.3}{}}
\@writefile{toc}{\contentsline {subsubsection}{\numberline {4.1.3.1}isEnemy}{10}{subsubsection.4.1.3.1}\protected@file@percent }
\newlabel{class_cell_a6544a714ee1ae6b6cba50a5aeaf582f4}{{4.1.3.1}{10}{\texorpdfstring {isEnemy}{isEnemy}}{subsubsection.4.1.3.1}{}}
\@writefile{toc}{\contentsline {subsubsection}{\numberline {4.1.3.2}isShip}{10}{subsubsection.4.1.3.2}\protected@file@percent }
\newlabel{class_cell_a584f81b9115e56d19f5db33b0dec542d}{{4.1.3.2}{10}{\texorpdfstring {isShip}{isShip}}{subsubsection.4.1.3.2}{}}
\@writefile{toc}{\contentsline {subsubsection}{\numberline {4.1.3.3}isShot}{10}{subsubsection.4.1.3.3}\protected@file@percent }
\newlabel{class_cell_ad439ac99d151bfee65533472f275fd7a}{{4.1.3.3}{10}{\texorpdfstring {isShot}{isShot}}{subsubsection.4.1.3.3}{}}
\@writefile{toc}{\contentsline {subsubsection}{\numberline {4.1.3.4}markedColor}{10}{subsubsection.4.1.3.4}\protected@file@percent }
\newlabel{class_cell_ac01aaba6b698e574cffe11f3719dc4fe}{{4.1.3.4}{10}{\texorpdfstring {markedColor}{markedColor}}{subsubsection.4.1.3.4}{}}
\@writefile{toc}{\contentsline {subsubsection}{\numberline {4.1.3.5}standardColor}{10}{subsubsection.4.1.3.5}\protected@file@percent }
\newlabel{class_cell_af346249ad55ac18c4c036080d8cb5ac1}{{4.1.3.5}{10}{\texorpdfstring {standardColor}{standardColor}}{subsubsection.4.1.3.5}{}}
\@writefile{toc}{\contentsline {subsubsection}{\numberline {4.1.3.6}xIndex}{10}{subsubsection.4.1.3.6}\protected@file@percent }
\newlabel{class_cell_a872a43683726ba71867caa62230bf3c5}{{4.1.3.6}{10}{\texorpdfstring {xIndex}{xIndex}}{subsubsection.4.1.3.6}{}}
\@writefile{toc}{\contentsline {subsubsection}{\numberline {4.1.3.7}yIndex}{11}{subsubsection.4.1.3.7}\protected@file@percent }
\@writefile{toc}{\contentsline {subsection}{\numberline {4.1.4}Event Documentation}{11}{subsection.4.1.4}\protected@file@percent }
\newlabel{class_cell_ab476ab6f54ac492ca626789974c4c0cb}{{4.1.4}{11}{Event Documentation}{subsection.4.1.4}{}}
\@writefile{toc}{\contentsline {subsubsection}{\numberline {4.1.4.1}CellClickedEvent}{11}{subsubsection.4.1.4.1}\protected@file@percent }
\newlabel{class_cell_a4b528c18046d1fb399e95ff27aa9b67a}{{4.1.4.1}{11}{\texorpdfstring {CellClickedEvent}{CellClickedEvent}}{subsubsection.4.1.4.1}{}}
\@writefile{toc}{\contentsline {subsubsection}{\numberline {4.1.4.2}CellHoverEvent}{11}{subsubsection.4.1.4.2}\protected@file@percent }
\@writefile{toc}{\contentsline {section}{\numberline {4.2}Cell\discretionary {\mbox  {\scriptsize  $\hookleftarrow  $}}{}{}Event\discretionary {\mbox  {\scriptsize  $\hookleftarrow  $}}{}{}Args Class Reference}{11}{section.4.2}\protected@file@percent }
\newlabel{class_cell_event_args}{{4.2}{11}{Cell\+Event\+Args Class Reference}{section.4.2}{}}
\@writefile{toc}{\contentsline {subsection}{\numberline {4.2.1}Detailed Description}{11}{subsection.4.2.1}\protected@file@percent }
\@writefile{toc}{\contentsline {subsection}{\numberline {4.2.2}Constructor \& Destructor Documentation}{11}{subsection.4.2.2}\protected@file@percent }
\newlabel{class_cell_event_args_aea36e10da0ef34195fd2647db4b7ad2d}{{4.2.2}{11}{Constructor \& Destructor Documentation}{subsection.4.2.2}{}}
\@writefile{toc}{\contentsline {subsubsection}{\numberline {4.2.2.1}CellEventArgs()\hspace  {0.1cm}{\footnotesize  \ttfamily  [1/2]}}{12}{subsubsection.4.2.2.1}\protected@file@percent }
\newlabel{class_cell_event_args_a5a12bd17ab90cb47c84abdb4911f8e80}{{4.2.2.1}{12}{\texorpdfstring {CellEventArgs()}{CellEventArgs()}\hspace {0.1cm}{\footnotesize \ttfamily [1/2]}}{subsubsection.4.2.2.1}{}}
\@writefile{toc}{\contentsline {subsubsection}{\numberline {4.2.2.2}CellEventArgs()\hspace  {0.1cm}{\footnotesize  \ttfamily  [2/2]}}{12}{subsubsection.4.2.2.2}\protected@file@percent }
\@writefile{toc}{\contentsline {subsection}{\numberline {4.2.3}Property Documentation}{12}{subsection.4.2.3}\protected@file@percent }
\newlabel{class_cell_event_args_a76c56f42f63cdfcff41339b31cb22ccf}{{4.2.3}{12}{Property Documentation}{subsection.4.2.3}{}}
\@writefile{toc}{\contentsline {subsubsection}{\numberline {4.2.3.1}Hovered}{12}{subsubsection.4.2.3.1}\protected@file@percent }
\@writefile{toc}{\contentsline {section}{\numberline {4.3}Enemy\discretionary {\mbox  {\scriptsize  $\hookleftarrow  $}}{}{}Field Class Reference}{12}{section.4.3}\protected@file@percent }
\newlabel{class_enemy_field}{{4.3}{12}{Enemy\+Field Class Reference}{section.4.3}{}}
\@writefile{toc}{\contentsline {subsection}{\numberline {4.3.1}Detailed Description}{13}{subsection.4.3.1}\protected@file@percent }
\@writefile{toc}{\contentsline {subsection}{\numberline {4.3.2}Member Function Documentation}{13}{subsection.4.3.2}\protected@file@percent }
\newlabel{class_enemy_field_a39aad617cc60e32520066a93a469b87f}{{4.3.2}{13}{Member Function Documentation}{subsection.4.3.2}{}}
\@writefile{toc}{\contentsline {subsubsection}{\numberline {4.3.2.1}InitializeCells()}{13}{subsubsection.4.3.2.1}\protected@file@percent }
\newlabel{class_enemy_field_aaa7fd6b10e3fce6e52d588f99c1f0c3e}{{4.3.2.1}{13}{\texorpdfstring {InitializeCells()}{InitializeCells()}}{subsubsection.4.3.2.1}{}}
\@writefile{toc}{\contentsline {subsubsection}{\numberline {4.3.2.2}Start()}{13}{subsubsection.4.3.2.2}\protected@file@percent }
\@writefile{toc}{\contentsline {section}{\numberline {4.4}Field Class Reference}{13}{section.4.4}\protected@file@percent }
\newlabel{class_field}{{4.4}{13}{Field Class Reference}{section.4.4}{}}
\@writefile{toc}{\contentsline {subsection}{\numberline {4.4.1}Detailed Description}{14}{subsection.4.4.1}\protected@file@percent }
\@writefile{toc}{\contentsline {subsection}{\numberline {4.4.2}Member Function Documentation}{14}{subsection.4.4.2}\protected@file@percent }
\newlabel{class_field_abcd1ee1e487956d40d1c17b6b94ee6b2}{{4.4.2}{14}{Member Function Documentation}{subsection.4.4.2}{}}
\@writefile{toc}{\contentsline {subsubsection}{\numberline {4.4.2.1}InitializeCells()}{14}{subsubsection.4.4.2.1}\protected@file@percent }
\newlabel{class_field_a9cac58a2df72e3fe1aaa14dc6a5ae9e6}{{4.4.2.1}{14}{\texorpdfstring {InitializeCells()}{InitializeCells()}}{subsubsection.4.4.2.1}{}}
\@writefile{toc}{\contentsline {subsubsection}{\numberline {4.4.2.2}OnCellHit()}{14}{subsubsection.4.4.2.2}\protected@file@percent }
\gdef \LT@i {\LT@entry 
    {3}{22.30374pt}\LT@entry 
    {3}{200.89215pt}}
\newlabel{class_field_a62714f93c9766ac839f498e377ee3838}{{4.4.2.2}{15}{\texorpdfstring {OnCellHit()}{OnCellHit()}}{table.4.1}{}}
\@writefile{toc}{\contentsline {subsubsection}{\numberline {4.4.2.3}Start()}{15}{subsubsection.4.4.2.3}\protected@file@percent }
\@writefile{toc}{\contentsline {subsection}{\numberline {4.4.3}Member Data Documentation}{15}{subsection.4.4.3}\protected@file@percent }
\newlabel{class_field_a2bdaa63666fc4173e2c3af10e3aa150d}{{4.4.3}{15}{Member Data Documentation}{subsection.4.4.3}{}}
\@writefile{toc}{\contentsline {subsubsection}{\numberline {4.4.3.1}cells}{15}{subsubsection.4.4.3.1}\protected@file@percent }
\newlabel{class_field_a205e13e91d649be585c2fc86cf55851c}{{4.4.3.1}{15}{\texorpdfstring {cells}{cells}}{subsubsection.4.4.3.1}{}}
\@writefile{toc}{\contentsline {subsubsection}{\numberline {4.4.3.2}cellwidth}{15}{subsubsection.4.4.3.2}\protected@file@percent }
\newlabel{class_field_a5289b49cc5ef3b25f36ccadf960b86d1}{{4.4.3.2}{15}{\texorpdfstring {cellwidth}{cellwidth}}{subsubsection.4.4.3.2}{}}
\@writefile{toc}{\contentsline {subsubsection}{\numberline {4.4.3.3}hitImage}{15}{subsubsection.4.4.3.3}\protected@file@percent }
\newlabel{class_field_add085632497a5df612f2658aa074d047}{{4.4.3.3}{15}{\texorpdfstring {hitImage}{hitImage}}{subsubsection.4.4.3.3}{}}
\@writefile{toc}{\contentsline {subsubsection}{\numberline {4.4.3.4}posx0}{15}{subsubsection.4.4.3.4}\protected@file@percent }
\newlabel{class_field_a45e93bf1858e93c7d8cf6dcca3a741e8}{{4.4.3.4}{15}{\texorpdfstring {posx0}{posx0}}{subsubsection.4.4.3.4}{}}
\@writefile{toc}{\contentsline {subsubsection}{\numberline {4.4.3.5}posy0}{16}{subsubsection.4.4.3.5}\protected@file@percent }
\newlabel{class_field_ad86e1b5481a6e057e3248a0d35ef5595}{{4.4.3.5}{16}{\texorpdfstring {posy0}{posy0}}{subsubsection.4.4.3.5}{}}
\@writefile{toc}{\contentsline {subsubsection}{\numberline {4.4.3.6}totalcellheight}{16}{subsubsection.4.4.3.6}\protected@file@percent }
\newlabel{class_field_ad9011edd20626637ed8dc5b9068a61df}{{4.4.3.6}{16}{\texorpdfstring {totalcellheight}{totalcellheight}}{subsubsection.4.4.3.6}{}}
\@writefile{toc}{\contentsline {subsubsection}{\numberline {4.4.3.7}totalcellwidth}{16}{subsubsection.4.4.3.7}\protected@file@percent }
\@writefile{toc}{\contentsline {section}{\numberline {4.5}Network\discretionary {\mbox  {\scriptsize  $\hookleftarrow  $}}{}{}Manager Class Reference}{16}{section.4.5}\protected@file@percent }
\newlabel{class_network_manager}{{4.5}{16}{Network\+Manager Class Reference}{section.4.5}{}}
\@writefile{toc}{\contentsline {subsection}{\numberline {4.5.1}Detailed Description}{17}{subsection.4.5.1}\protected@file@percent }
\@writefile{toc}{\contentsline {subsection}{\numberline {4.5.2}Member Function Documentation}{17}{subsection.4.5.2}\protected@file@percent }
\newlabel{class_network_manager_a8eb293bf440cb5afa0026c358465f0df}{{4.5.2}{17}{Member Function Documentation}{subsection.4.5.2}{}}
\gdef \LT@ii {\LT@entry 
    {3}{62.6683pt}\LT@entry 
    {3}{257.64471pt}}
\@writefile{toc}{\contentsline {subsubsection}{\numberline {4.5.2.1}Awake()}{18}{subsubsection.4.5.2.1}\protected@file@percent }
\newlabel{class_network_manager_ade41509c192e626e0a84be659bb377cd}{{4.5.2.1}{18}{\texorpdfstring {Awake()}{Awake()}}{subsubsection.4.5.2.1}{}}
\@writefile{toc}{\contentsline {subsubsection}{\numberline {4.5.2.2}CheckInstance()}{18}{subsubsection.4.5.2.2}\protected@file@percent }
\newlabel{class_network_manager_a3c52717ee709ddc4787713086b70c981}{{4.5.2.2}{18}{\texorpdfstring {CheckInstance()}{CheckInstance()}}{subsubsection.4.5.2.2}{}}
\@writefile{toc}{\contentsline {subsubsection}{\numberline {4.5.2.3}HandleConnection()}{18}{subsubsection.4.5.2.3}\protected@file@percent }
\newlabel{class_network_manager_a728930d6d5a54f5632a50b896769491e}{{4.5.2.3}{18}{\texorpdfstring {HandleConnection()}{HandleConnection()}}{subsubsection.4.5.2.3}{}}
\@writefile{toc}{\contentsline {subsubsection}{\numberline {4.5.2.4}InitStatusIndicator()}{18}{subsubsection.4.5.2.4}\protected@file@percent }
\newlabel{class_network_manager_a2943a76a42b1f47aded9bbf24a758c9d}{{4.5.2.4}{18}{\texorpdfstring {InitStatusIndicator()}{InitStatusIndicator()}}{subsubsection.4.5.2.4}{}}
\@writefile{toc}{\contentsline {subsubsection}{\numberline {4.5.2.5}OnCellHit()}{18}{subsubsection.4.5.2.5}\protected@file@percent }
\newlabel{class_network_manager_a815d8c923a0781dd84f82677d241a6a2}{{4.5.2.5}{18}{\texorpdfstring {OnCellHit()}{OnCellHit()}}{table.4.2}{}}
\@writefile{toc}{\contentsline {subsubsection}{\numberline {4.5.2.6}OnConnectionException()}{19}{subsubsection.4.5.2.6}\protected@file@percent }
\newlabel{class_network_manager_aa463d0fa02913a2afd07879f55498a60}{{4.5.2.6}{19}{\texorpdfstring {OnConnectionException()}{OnConnectionException()}}{subsubsection.4.5.2.6}{}}
\@writefile{toc}{\contentsline {subsubsection}{\numberline {4.5.2.7}OnSceneLoaded()}{19}{subsubsection.4.5.2.7}\protected@file@percent }
\newlabel{class_network_manager_abdbb22e8a520a6826ae229d95823b0ee}{{4.5.2.7}{19}{\texorpdfstring {OnSceneLoaded()}{OnSceneLoaded()}}{subsubsection.4.5.2.7}{}}
\@writefile{toc}{\contentsline {subsubsection}{\numberline {4.5.2.8}OnServerRequest()}{19}{subsubsection.4.5.2.8}\protected@file@percent }
\newlabel{class_network_manager_a2141fbd1f625ceac293ab7070d62a307}{{4.5.2.8}{19}{\texorpdfstring {OnServerRequest()}{OnServerRequest()}}{subsubsection.4.5.2.8}{}}
\@writefile{toc}{\contentsline {subsubsection}{\numberline {4.5.2.9}OnServerResponse()}{19}{subsubsection.4.5.2.9}\protected@file@percent }
\newlabel{class_network_manager_ad735a63bcae26f939e82b45f003ea303}{{4.5.2.9}{19}{\texorpdfstring {OnServerResponse()}{OnServerResponse()}}{subsubsection.4.5.2.9}{}}
\@writefile{toc}{\contentsline {subsubsection}{\numberline {4.5.2.10}OnServerStatusUpdate()}{19}{subsubsection.4.5.2.10}\protected@file@percent }
\newlabel{class_network_manager_ab68e9d06e8cc3c88d0c01d423edc00db}{{4.5.2.10}{19}{\texorpdfstring {OnServerStatusUpdate()}{OnServerStatusUpdate()}}{subsubsection.4.5.2.10}{}}
\@writefile{toc}{\contentsline {subsubsection}{\numberline {4.5.2.11}SendGameQuitRequest()}{19}{subsubsection.4.5.2.11}\protected@file@percent }
\newlabel{class_network_manager_a6c298ae5d06d442e099c6087f8279314}{{4.5.2.11}{19}{\texorpdfstring {SendGameQuitRequest()}{SendGameQuitRequest()}}{subsubsection.4.5.2.11}{}}
\gdef \LT@iii {\LT@entry 
    {3}{23.79776pt}\LT@entry 
    {3}{135.00458pt}}
\gdef \LT@iv {\LT@entry 
    {3}{17.29996pt}\LT@entry 
    {3}{83.16544pt}}
\@writefile{toc}{\contentsline {subsubsection}{\numberline {4.5.2.12}SendMatchmakingRequest()}{20}{subsubsection.4.5.2.12}\protected@file@percent }
\newlabel{class_network_manager_a49a7cf951d9ea06c2dd973f158daf530}{{4.5.2.12}{20}{\texorpdfstring {SendMatchmakingRequest()}{SendMatchmakingRequest()}}{subsubsection.4.5.2.12}{}}
\@writefile{toc}{\contentsline {subsubsection}{\numberline {4.5.2.13}SendShips()}{20}{subsubsection.4.5.2.13}\protected@file@percent }
\newlabel{class_network_manager_a6dc90eff1030a6d774c5447c57b1693d}{{4.5.2.13}{20}{\texorpdfstring {SendShips()}{SendShips()}}{table.4.3}{}}
\@writefile{toc}{\contentsline {subsubsection}{\numberline {4.5.2.14}SendShootCell()}{20}{subsubsection.4.5.2.14}\protected@file@percent }
\newlabel{class_network_manager_a2e734d1dc215b95c232ca8adbe0fc65c}{{4.5.2.14}{20}{\texorpdfstring {SendShootCell()}{SendShootCell()}}{table.4.4}{}}
\@writefile{toc}{\contentsline {subsubsection}{\numberline {4.5.2.15}ShowStatusIndicator()}{20}{subsubsection.4.5.2.15}\protected@file@percent }
\newlabel{class_network_manager_a3e9146c4e5bda229850acb04f80383cd}{{4.5.2.15}{20}{\texorpdfstring {ShowStatusIndicator()}{ShowStatusIndicator()}}{subsubsection.4.5.2.15}{}}
\@writefile{toc}{\contentsline {subsubsection}{\numberline {4.5.2.16}Start()}{20}{subsubsection.4.5.2.16}\protected@file@percent }
\newlabel{class_network_manager_abaa55d01a06c9126761858b1eb6ebee3}{{4.5.2.16}{20}{\texorpdfstring {Start()}{Start()}}{subsubsection.4.5.2.16}{}}
\@writefile{toc}{\contentsline {subsubsection}{\numberline {4.5.2.17}StartPlacementPhase()}{21}{subsubsection.4.5.2.17}\protected@file@percent }
\newlabel{class_network_manager_a3ae48fd90b2432399fe8d339d0dec408}{{4.5.2.17}{21}{\texorpdfstring {StartPlacementPhase()}{StartPlacementPhase()}}{subsubsection.4.5.2.17}{}}
\@writefile{toc}{\contentsline {subsubsection}{\numberline {4.5.2.18}ThrowLogicError()}{21}{subsubsection.4.5.2.18}\protected@file@percent }
\@writefile{toc}{\contentsline {subsection}{\numberline {4.5.3}Member Data Documentation}{21}{subsection.4.5.3}\protected@file@percent }
\newlabel{class_network_manager_a9324eb8e4c030f5026e8ec9654bde437}{{4.5.3}{21}{Member Data Documentation}{subsection.4.5.3}{}}
\@writefile{toc}{\contentsline {subsubsection}{\numberline {4.5.3.1}client}{21}{subsubsection.4.5.3.1}\protected@file@percent }
\newlabel{class_network_manager_a47c5310ef05a77817fd074b3b94ab0bc}{{4.5.3.1}{21}{\texorpdfstring {client}{client}}{subsubsection.4.5.3.1}{}}
\@writefile{toc}{\contentsline {subsubsection}{\numberline {4.5.3.2}enemyField}{21}{subsubsection.4.5.3.2}\protected@file@percent }
\newlabel{class_network_manager_ae261663465c10b2b0a45aa41bc1cfe33}{{4.5.3.2}{21}{\texorpdfstring {enemyField}{enemyField}}{subsubsection.4.5.3.2}{}}
\@writefile{toc}{\contentsline {subsubsection}{\numberline {4.5.3.3}instance}{21}{subsubsection.4.5.3.3}\protected@file@percent }
\newlabel{class_network_manager_a49ddfc1ba00cb6f9f20b00ed3198b87e}{{4.5.3.3}{21}{\texorpdfstring {instance}{instance}}{subsubsection.4.5.3.3}{}}
\@writefile{toc}{\contentsline {subsubsection}{\numberline {4.5.3.4}player}{21}{subsubsection.4.5.3.4}\protected@file@percent }
\newlabel{class_network_manager_ae850c367cb1f61cff326aa34d5593146}{{4.5.3.4}{21}{\texorpdfstring {player}{player}}{subsubsection.4.5.3.4}{}}
\@writefile{toc}{\contentsline {subsubsection}{\numberline {4.5.3.5}playerField}{22}{subsubsection.4.5.3.5}\protected@file@percent }
\newlabel{class_network_manager_af63e2e2bec2080fc91ce9ac3a378957b}{{4.5.3.5}{22}{\texorpdfstring {playerField}{playerField}}{subsubsection.4.5.3.5}{}}
\@writefile{toc}{\contentsline {subsubsection}{\numberline {4.5.3.6}statusIndicator}{22}{subsubsection.4.5.3.6}\protected@file@percent }
\@writefile{toc}{\contentsline {section}{\numberline {4.6}Player Class Reference}{22}{section.4.6}\protected@file@percent }
\newlabel{class_player}{{4.6}{22}{Player Class Reference}{section.4.6}{}}
\@writefile{toc}{\contentsline {subsection}{\numberline {4.6.1}Detailed Description}{24}{subsection.4.6.1}\protected@file@percent }
\@writefile{toc}{\contentsline {subsection}{\numberline {4.6.2}Member Function Documentation}{24}{subsection.4.6.2}\protected@file@percent }
\newlabel{class_player_af833adaff1aad86e150dd6598978277f}{{4.6.2}{24}{Member Function Documentation}{subsection.4.6.2}{}}
\@writefile{toc}{\contentsline {subsubsection}{\numberline {4.6.2.1}ConfirmPlacements()}{24}{subsubsection.4.6.2.1}\protected@file@percent }
\newlabel{class_player_abb28f24adebc7b27e64934ac5ad70e48}{{4.6.2.1}{24}{\texorpdfstring {ConfirmPlacements()}{ConfirmPlacements()}}{subsubsection.4.6.2.1}{}}
\@writefile{toc}{\contentsline {subsubsection}{\numberline {4.6.2.2}DeleteLastShip()}{24}{subsubsection.4.6.2.2}\protected@file@percent }
\newlabel{class_player_a2294de05251594c53c41c4ed0fdeb618}{{4.6.2.2}{24}{\texorpdfstring {DeleteLastShip()}{DeleteLastShip()}}{subsubsection.4.6.2.2}{}}
\@writefile{toc}{\contentsline {subsubsection}{\numberline {4.6.2.3}Init()}{24}{subsubsection.4.6.2.3}\protected@file@percent }
\newlabel{class_player_a97087d7fc42e71e9083731df5c3eb382}{{4.6.2.3}{24}{\texorpdfstring {Init()}{Init()}}{subsubsection.4.6.2.3}{}}
\@writefile{toc}{\contentsline {subsubsection}{\numberline {4.6.2.4}LoadScene()}{24}{subsubsection.4.6.2.4}\protected@file@percent }
\gdef \LT@v {\LT@entry 
    {3}{35.30861pt}\LT@entry 
    {3}{87.93547pt}}
\newlabel{class_player_abc56b171ba2ee9295fee390000254a94}{{4.6.2.4}{25}{\texorpdfstring {LoadScene()}{LoadScene()}}{table.4.5}{}}
\@writefile{toc}{\contentsline {subsubsection}{\numberline {4.6.2.5}OnCellClicked()}{25}{subsubsection.4.6.2.5}\protected@file@percent }
\newlabel{class_player_a458cbf1a2f966b7734aba9f8fe83abbe}{{4.6.2.5}{25}{\texorpdfstring {OnCellClicked()}{OnCellClicked()}}{subsubsection.4.6.2.5}{}}
\@writefile{toc}{\contentsline {subsubsection}{\numberline {4.6.2.6}OnCellHovered()}{25}{subsubsection.4.6.2.6}\protected@file@percent }
\newlabel{class_player_a64ff84002513f67ad72a2f553465d016}{{4.6.2.6}{25}{\texorpdfstring {OnCellHovered()}{OnCellHovered()}}{subsubsection.4.6.2.6}{}}
\@writefile{toc}{\contentsline {subsubsection}{\numberline {4.6.2.7}OnDestroy()}{25}{subsubsection.4.6.2.7}\protected@file@percent }
\newlabel{class_player_ac8176c3a3bb48f31590a3c7c50c6c72b}{{4.6.2.7}{25}{\texorpdfstring {OnDestroy()}{OnDestroy()}}{subsubsection.4.6.2.7}{}}
\@writefile{toc}{\contentsline {subsubsection}{\numberline {4.6.2.8}OnShipSelected()}{25}{subsubsection.4.6.2.8}\protected@file@percent }
\newlabel{class_player_a9e5b76b1b4fb2b6bfeb3a9f9d702160a}{{4.6.2.8}{25}{\texorpdfstring {OnShipSelected()}{OnShipSelected()}}{subsubsection.4.6.2.8}{}}
\@writefile{toc}{\contentsline {subsubsection}{\numberline {4.6.2.9}OnShipsNotAccepted()}{25}{subsubsection.4.6.2.9}\protected@file@percent }
\newlabel{class_player_a32b614ee1bc1e09a93559d46303672a9}{{4.6.2.9}{25}{\texorpdfstring {OnShipsNotAccepted()}{OnShipsNotAccepted()}}{subsubsection.4.6.2.9}{}}
\gdef \LT@vi {\LT@entry 
    {3}{17.8039pt}\LT@entry 
    {3}{263.13489pt}}
\@writefile{toc}{\contentsline {subsubsection}{\numberline {4.6.2.10}PlaceShip()}{26}{subsubsection.4.6.2.10}\protected@file@percent }
\newlabel{class_player_a224af17d4035b3fb76418452d37b86d7}{{4.6.2.10}{26}{\texorpdfstring {PlaceShip()}{PlaceShip()}}{subsubsection.4.6.2.10}{}}
\@writefile{toc}{\contentsline {subsubsection}{\numberline {4.6.2.11}PlayAgain()}{26}{subsubsection.4.6.2.11}\protected@file@percent }
\newlabel{class_player_a38470668f5600eb1306c7705b616eaf4}{{4.6.2.11}{26}{\texorpdfstring {PlayAgain()}{PlayAgain()}}{subsubsection.4.6.2.11}{}}
\@writefile{toc}{\contentsline {subsubsection}{\numberline {4.6.2.12}QuitGame()}{26}{subsubsection.4.6.2.12}\protected@file@percent }
\newlabel{class_player_aedafddfafe75c83f47b47b46194557b6}{{4.6.2.12}{26}{\texorpdfstring {QuitGame()}{QuitGame()}}{subsubsection.4.6.2.12}{}}
\@writefile{toc}{\contentsline {subsubsection}{\numberline {4.6.2.13}SetPlayersTurn()}{26}{subsubsection.4.6.2.13}\protected@file@percent }
\newlabel{class_player_a3d3af1a33d468a9f9830ced6885610ab}{{4.6.2.13}{26}{\texorpdfstring {SetPlayersTurn()}{SetPlayersTurn()}}{table.4.6}{}}
\@writefile{toc}{\contentsline {subsubsection}{\numberline {4.6.2.14}ShootCell()}{26}{subsubsection.4.6.2.14}\protected@file@percent }
\newlabel{class_player_a199698aaeece740e0734864ca6d36e04}{{4.6.2.14}{26}{\texorpdfstring {ShootCell()}{ShootCell()}}{subsubsection.4.6.2.14}{}}
\gdef \LT@vii {\LT@entry 
    {3}{72.85605pt}\LT@entry 
    {3}{252.33508pt}}
\gdef \LT@viii {\LT@entry 
    {3}{49.31245pt}\LT@entry 
    {3}{194.02554pt}}
\@writefile{toc}{\contentsline {subsubsection}{\numberline {4.6.2.15}ShowEndScreen()}{27}{subsubsection.4.6.2.15}\protected@file@percent }
\newlabel{class_player_ac6be25e0288b9353581218dac8d54747}{{4.6.2.15}{27}{\texorpdfstring {ShowEndScreen()}{ShowEndScreen()}}{table.4.7}{}}
\@writefile{toc}{\contentsline {subsubsection}{\numberline {4.6.2.16}ShowErrorPopUp()}{27}{subsubsection.4.6.2.16}\protected@file@percent }
\newlabel{class_player_a1a09a3ded16ac1646f6bdd4f25fe0ddd}{{4.6.2.16}{27}{\texorpdfstring {ShowErrorPopUp()}{ShowErrorPopUp()}}{table.4.8}{}}
\@writefile{toc}{\contentsline {subsubsection}{\numberline {4.6.2.17}Start()}{27}{subsubsection.4.6.2.17}\protected@file@percent }
\newlabel{class_player_a40e3df439077acf934f4148f3d4db328}{{4.6.2.17}{27}{\texorpdfstring {Start()}{Start()}}{subsubsection.4.6.2.17}{}}
\@writefile{toc}{\contentsline {subsubsection}{\numberline {4.6.2.18}StartPlayingphase()}{27}{subsubsection.4.6.2.18}\protected@file@percent }
\newlabel{class_player_a1f7ad2cc018126ebdd57923b36e86cd8}{{4.6.2.18}{27}{\texorpdfstring {StartPlayingphase()}{StartPlayingphase()}}{subsubsection.4.6.2.18}{}}
\@writefile{toc}{\contentsline {subsubsection}{\numberline {4.6.2.19}ToggleOrientation()}{27}{subsubsection.4.6.2.19}\protected@file@percent }
\newlabel{class_player_a9004c5540a73b55296e08c3147b589a4}{{4.6.2.19}{27}{\texorpdfstring {ToggleOrientation()}{ToggleOrientation()}}{subsubsection.4.6.2.19}{}}
\@writefile{toc}{\contentsline {subsubsection}{\numberline {4.6.2.20}UpdatePlacementShips()}{28}{subsubsection.4.6.2.20}\protected@file@percent }
\@writefile{toc}{\contentsline {subsection}{\numberline {4.6.3}Member Data Documentation}{28}{subsection.4.6.3}\protected@file@percent }
\newlabel{class_player_a7306813935ceb363d8e9a1cb3c9663f2}{{4.6.3}{28}{Member Data Documentation}{subsection.4.6.3}{}}
\@writefile{toc}{\contentsline {subsubsection}{\numberline {4.6.3.1}confirmButton}{28}{subsubsection.4.6.3.1}\protected@file@percent }
\newlabel{class_player_a6c764ee33edfad5a68a5259f979ada28}{{4.6.3.1}{28}{\texorpdfstring {confirmButton}{confirmButton}}{subsubsection.4.6.3.1}{}}
\@writefile{toc}{\contentsline {subsubsection}{\numberline {4.6.3.2}disabledColor}{28}{subsubsection.4.6.3.2}\protected@file@percent }
\newlabel{class_player_a4c05255b28af95181366421089a0019d}{{4.6.3.2}{28}{\texorpdfstring {disabledColor}{disabledColor}}{subsubsection.4.6.3.2}{}}
\@writefile{toc}{\contentsline {subsubsection}{\numberline {4.6.3.3}enabledColor}{28}{subsubsection.4.6.3.3}\protected@file@percent }
\newlabel{class_player_af59a87c41cbba03dfe9ca84863c816bc}{{4.6.3.3}{28}{\texorpdfstring {enabledColor}{enabledColor}}{subsubsection.4.6.3.3}{}}
\@writefile{toc}{\contentsline {subsubsection}{\numberline {4.6.3.4}EndScreen}{28}{subsubsection.4.6.3.4}\protected@file@percent }
\newlabel{class_player_ab793abe88c8406d4bf33a9ef88caa7f6}{{4.6.3.4}{28}{\texorpdfstring {EndScreen}{EndScreen}}{subsubsection.4.6.3.4}{}}
\@writefile{toc}{\contentsline {subsubsection}{\numberline {4.6.3.5}ErrorPopUp}{28}{subsubsection.4.6.3.5}\protected@file@percent }
\newlabel{class_player_afa6e0cb3ef975e2a401134b0f7dbc983}{{4.6.3.5}{28}{\texorpdfstring {ErrorPopUp}{ErrorPopUp}}{subsubsection.4.6.3.5}{}}
\@writefile{toc}{\contentsline {subsubsection}{\numberline {4.6.3.6}field}{28}{subsubsection.4.6.3.6}\protected@file@percent }
\newlabel{class_player_a6ae8b113ddcc76541f440222f6cff2c5}{{4.6.3.6}{28}{\texorpdfstring {field}{field}}{subsubsection.4.6.3.6}{}}
\@writefile{toc}{\contentsline {subsubsection}{\numberline {4.6.3.7}horizontalPlacement}{29}{subsubsection.4.6.3.7}\protected@file@percent }
\newlabel{class_player_a7c2667b0c4d3a98aeaa02388b8f75020}{{4.6.3.7}{29}{\texorpdfstring {horizontalPlacement}{horizontalPlacement}}{subsubsection.4.6.3.7}{}}
\@writefile{toc}{\contentsline {subsubsection}{\numberline {4.6.3.8}isPlayersTurn}{29}{subsubsection.4.6.3.8}\protected@file@percent }
\newlabel{class_player_a51011395f3d43cf8bcd3c54f7f336b93}{{4.6.3.8}{29}{\texorpdfstring {isPlayersTurn}{isPlayersTurn}}{subsubsection.4.6.3.8}{}}
\@writefile{toc}{\contentsline {subsubsection}{\numberline {4.6.3.9}networkManager}{29}{subsubsection.4.6.3.9}\protected@file@percent }
\newlabel{class_player_a684e35f781a290a09708ea2b9f79d95c}{{4.6.3.9}{29}{\texorpdfstring {networkManager}{networkManager}}{subsubsection.4.6.3.9}{}}
\@writefile{toc}{\contentsline {subsubsection}{\numberline {4.6.3.10}placementShipL}{29}{subsubsection.4.6.3.10}\protected@file@percent }
\newlabel{class_player_a45892f7c98e74f59c5f11866618bcc3c}{{4.6.3.10}{29}{\texorpdfstring {placementShipL}{placementShipL}}{subsubsection.4.6.3.10}{}}
\@writefile{toc}{\contentsline {subsubsection}{\numberline {4.6.3.11}placementShipM}{29}{subsubsection.4.6.3.11}\protected@file@percent }
\newlabel{class_player_a8e8a323bea96f1205554bff6af4992ad}{{4.6.3.11}{29}{\texorpdfstring {placementShipM}{placementShipM}}{subsubsection.4.6.3.11}{}}
\@writefile{toc}{\contentsline {subsubsection}{\numberline {4.6.3.12}placementShipS}{29}{subsubsection.4.6.3.12}\protected@file@percent }
\newlabel{class_player_a333d3d33c99645a06606d671ff6a47c6}{{4.6.3.12}{29}{\texorpdfstring {placementShipS}{placementShipS}}{subsubsection.4.6.3.12}{}}
\@writefile{toc}{\contentsline {subsubsection}{\numberline {4.6.3.13}placementShipXL}{29}{subsubsection.4.6.3.13}\protected@file@percent }
\newlabel{class_player_a48e3d5ecc1a2af6a2e01b95f222ff14e}{{4.6.3.13}{29}{\texorpdfstring {placementShipXL}{placementShipXL}}{subsubsection.4.6.3.13}{}}
\@writefile{toc}{\contentsline {subsubsection}{\numberline {4.6.3.14}placementWindow}{30}{subsubsection.4.6.3.14}\protected@file@percent }
\newlabel{class_player_a2368adf154304e33bf2d3ddc701d8213}{{4.6.3.14}{30}{\texorpdfstring {placementWindow}{placementWindow}}{subsubsection.4.6.3.14}{}}
\@writefile{toc}{\contentsline {subsubsection}{\numberline {4.6.3.15}playerIsPlacing}{30}{subsubsection.4.6.3.15}\protected@file@percent }
\newlabel{class_player_a93234690a4c3db2d6fbaa2f21c906fc5}{{4.6.3.15}{30}{\texorpdfstring {playerIsPlacing}{playerIsPlacing}}{subsubsection.4.6.3.15}{}}
\@writefile{toc}{\contentsline {subsubsection}{\numberline {4.6.3.16}rotationState}{30}{subsubsection.4.6.3.16}\protected@file@percent }
\newlabel{class_player_a7d073dc8af1b8f2f8cb5f2d9812ef1ab}{{4.6.3.16}{30}{\texorpdfstring {rotationState}{rotationState}}{subsubsection.4.6.3.16}{}}
\@writefile{toc}{\contentsline {subsubsection}{\numberline {4.6.3.17}selectedShip}{30}{subsubsection.4.6.3.17}\protected@file@percent }
\newlabel{class_player_aa64e03a95ff461115371f94b77592942}{{4.6.3.17}{30}{\texorpdfstring {selectedShip}{selectedShip}}{subsubsection.4.6.3.17}{}}
\@writefile{toc}{\contentsline {subsubsection}{\numberline {4.6.3.18}shipCountL}{30}{subsubsection.4.6.3.18}\protected@file@percent }
\newlabel{class_player_a8ce53f477c71b354a45432e857de2772}{{4.6.3.18}{30}{\texorpdfstring {shipCountL}{shipCountL}}{subsubsection.4.6.3.18}{}}
\@writefile{toc}{\contentsline {subsubsection}{\numberline {4.6.3.19}shipCountM}{30}{subsubsection.4.6.3.19}\protected@file@percent }
\newlabel{class_player_a7f515406b5940fff03cf587aff641171}{{4.6.3.19}{30}{\texorpdfstring {shipCountM}{shipCountM}}{subsubsection.4.6.3.19}{}}
\@writefile{toc}{\contentsline {subsubsection}{\numberline {4.6.3.20}shipCountS}{30}{subsubsection.4.6.3.20}\protected@file@percent }
\newlabel{class_player_af444a95832715305a944f20a4bb70058}{{4.6.3.20}{30}{\texorpdfstring {shipCountS}{shipCountS}}{subsubsection.4.6.3.20}{}}
\@writefile{toc}{\contentsline {subsubsection}{\numberline {4.6.3.21}shipCountXL}{31}{subsubsection.4.6.3.21}\protected@file@percent }
\newlabel{class_player_abce0976e2791a77c96a564078480d065}{{4.6.3.21}{31}{\texorpdfstring {shipCountXL}{shipCountXL}}{subsubsection.4.6.3.21}{}}
\@writefile{toc}{\contentsline {subsubsection}{\numberline {4.6.3.22}ships}{31}{subsubsection.4.6.3.22}\protected@file@percent }
\newlabel{class_player_a7fd9b7051cbcc75b20f44a1a3354097a}{{4.6.3.22}{31}{\texorpdfstring {ships}{ships}}{subsubsection.4.6.3.22}{}}
\@writefile{toc}{\contentsline {subsubsection}{\numberline {4.6.3.23}textTurnIndicator}{31}{subsubsection.4.6.3.23}\protected@file@percent }
\newlabel{class_player_a6ebe678088f5d9ac5be942827697a7bb}{{4.6.3.23}{31}{\texorpdfstring {textTurnIndicator}{textTurnIndicator}}{subsubsection.4.6.3.23}{}}
\@writefile{toc}{\contentsline {subsubsection}{\numberline {4.6.3.24}turnIndicator}{31}{subsubsection.4.6.3.24}\protected@file@percent }
\newlabel{class_player_a1226dfd58eda8f4260e31468c5a9f73f}{{4.6.3.24}{31}{\texorpdfstring {turnIndicator}{turnIndicator}}{subsubsection.4.6.3.24}{}}
\@writefile{toc}{\contentsline {subsubsection}{\numberline {4.6.3.25}undoButton}{31}{subsubsection.4.6.3.25}\protected@file@percent }
\@writefile{toc}{\contentsline {section}{\numberline {4.7}Ship Class Reference}{31}{section.4.7}\protected@file@percent }
\newlabel{class_ship}{{4.7}{31}{Ship Class Reference}{section.4.7}{}}
\gdef \LT@ix {\LT@entry 
    {3}{34.03969pt}\LT@entry 
    {3}{197.95811pt}}
\@writefile{toc}{\contentsline {subsection}{\numberline {4.7.1}Detailed Description}{32}{subsection.4.7.1}\protected@file@percent }
\@writefile{toc}{\contentsline {subsection}{\numberline {4.7.2}Constructor \& Destructor Documentation}{32}{subsection.4.7.2}\protected@file@percent }
\newlabel{class_ship_a07b2fbd2490822d6084390130728c2f3}{{4.7.2}{32}{Constructor \& Destructor Documentation}{subsection.4.7.2}{}}
\@writefile{toc}{\contentsline {subsubsection}{\numberline {4.7.2.1}Ship()}{32}{subsubsection.4.7.2.1}\protected@file@percent }
\@writefile{toc}{\contentsline {subsection}{\numberline {4.7.3}Member Function Documentation}{32}{subsection.4.7.3}\protected@file@percent }
\newlabel{class_ship_a9e6ac1b588566b7d6085c401b37c8ddd}{{4.7.3}{32}{Member Function Documentation}{subsection.4.7.3}{}}
\@writefile{toc}{\contentsline {subsubsection}{\numberline {4.7.3.1}AddCell()}{32}{subsubsection.4.7.3.1}\protected@file@percent }
\newlabel{class_ship_a7a555db319f560bfd63995d93827efc0}{{4.7.3.1}{32}{\texorpdfstring {AddCell()}{AddCell()}}{table.4.9}{}}
\@writefile{toc}{\contentsline {subsubsection}{\numberline {4.7.3.2}Delete()}{33}{subsubsection.4.7.3.2}\protected@file@percent }
\@writefile{toc}{\contentsline {subsection}{\numberline {4.7.4}Member Data Documentation}{33}{subsection.4.7.4}\protected@file@percent }
\newlabel{class_ship_ab7438d34a9d286cdea866136131fc54a}{{4.7.4}{33}{Member Data Documentation}{subsection.4.7.4}{}}
\@writefile{toc}{\contentsline {subsubsection}{\numberline {4.7.4.1}color}{33}{subsubsection.4.7.4.1}\protected@file@percent }
\newlabel{class_ship_a84c4417f945e97c65ea9083e5aa7fcc3}{{4.7.4.1}{33}{\texorpdfstring {color}{color}}{subsubsection.4.7.4.1}{}}
\@writefile{toc}{\contentsline {subsubsection}{\numberline {4.7.4.2}isHorizontal}{33}{subsubsection.4.7.4.2}\protected@file@percent }
\@writefile{toc}{\contentsline {subsection}{\numberline {4.7.5}Property Documentation}{33}{subsection.4.7.5}\protected@file@percent }
\newlabel{class_ship_ad066dc5d31a2fd47f7129ab5ffcc0a89}{{4.7.5}{33}{Property Documentation}{subsection.4.7.5}{}}
\@writefile{toc}{\contentsline {subsubsection}{\numberline {4.7.5.1}cells}{33}{subsubsection.4.7.5.1}\protected@file@percent }
\newlabel{class_ship_ad8575fd1cb63b05ba05e938d856f7f97}{{4.7.5.1}{33}{\texorpdfstring {cells}{cells}}{subsubsection.4.7.5.1}{}}
\@writefile{toc}{\contentsline {subsubsection}{\numberline {4.7.5.2}size}{33}{subsubsection.4.7.5.2}\protected@file@percent }
\newlabel{class_ship_a1461c0930615f1d5be61478d7713f8ae}{{4.7.5.2}{33}{\texorpdfstring {size}{size}}{subsubsection.4.7.5.2}{}}
\@writefile{toc}{\contentsline {subsubsection}{\numberline {4.7.5.3}startPos}{33}{subsubsection.4.7.5.3}\protected@file@percent }
\@writefile{toc}{\contentsline {chapter}{\numberline {5}File Documentation}{35}{chapter.5}\protected@file@percent }
\@writefile{lof}{\addvspace {10\p@ }}
\@writefile{lot}{\addvspace {10\p@ }}
\@writefile{toc}{\contentsline {section}{\numberline {5.1}C\discretionary {\mbox  {\scriptsize  $\hookleftarrow  $}}{}{}:/\discretionary {\mbox  {\scriptsize  $\hookleftarrow  $}}{}{}Users/\discretionary {\mbox  {\scriptsize  $\hookleftarrow  $}}{}{}Dominiks PC/\discretionary {\mbox  {\scriptsize  $\hookleftarrow  $}}{}{}Documents/\discretionary {\mbox  {\scriptsize  $\hookleftarrow  $}}{}{}Git\discretionary {\mbox  {\scriptsize  $\hookleftarrow  $}}{}{}Lab/se2\discretionary {\mbox  {\scriptsize  $\hookleftarrow  $}}{}{}\_\discretionary {\mbox  {\scriptsize  $\hookleftarrow  $}}{}{}game/\discretionary {\mbox  {\scriptsize  $\hookleftarrow  $}}{}{}Frontend/schiffe\discretionary {\mbox  {\scriptsize  $\hookleftarrow  $}}{}{}\_\discretionary {\mbox  {\scriptsize  $\hookleftarrow  $}}{}{}versenken/\discretionary {\mbox  {\scriptsize  $\hookleftarrow  $}}{}{}Assets/\discretionary {\mbox  {\scriptsize  $\hookleftarrow  $}}{}{}Scripts/\discretionary {\mbox  {\scriptsize  $\hookleftarrow  $}}{}{}Cell.cs File Reference}{35}{section.5.1}\protected@file@percent }
\newlabel{_cell_8cs}{{5.1}{35}{C\+:/\+Users/\+Dominiks PC/\+Documents/\+Git\+Lab/se2\+\_\+game/\+Frontend/schiffe\+\_\+versenken/\+Assets/\+Scripts/\+Cell.cs File Reference}{section.5.1}{}}
\@writefile{toc}{\contentsline {section}{\numberline {5.2}C\discretionary {\mbox  {\scriptsize  $\hookleftarrow  $}}{}{}:/\discretionary {\mbox  {\scriptsize  $\hookleftarrow  $}}{}{}Users/\discretionary {\mbox  {\scriptsize  $\hookleftarrow  $}}{}{}Dominiks PC/\discretionary {\mbox  {\scriptsize  $\hookleftarrow  $}}{}{}Documents/\discretionary {\mbox  {\scriptsize  $\hookleftarrow  $}}{}{}Git\discretionary {\mbox  {\scriptsize  $\hookleftarrow  $}}{}{}Lab/se2\discretionary {\mbox  {\scriptsize  $\hookleftarrow  $}}{}{}\_\discretionary {\mbox  {\scriptsize  $\hookleftarrow  $}}{}{}game/\discretionary {\mbox  {\scriptsize  $\hookleftarrow  $}}{}{}Frontend/schiffe\discretionary {\mbox  {\scriptsize  $\hookleftarrow  $}}{}{}\_\discretionary {\mbox  {\scriptsize  $\hookleftarrow  $}}{}{}versenken/\discretionary {\mbox  {\scriptsize  $\hookleftarrow  $}}{}{}Assets/\discretionary {\mbox  {\scriptsize  $\hookleftarrow  $}}{}{}Scripts/\discretionary {\mbox  {\scriptsize  $\hookleftarrow  $}}{}{}Enemy\discretionary {\mbox  {\scriptsize  $\hookleftarrow  $}}{}{}Field.cs File Reference}{35}{section.5.2}\protected@file@percent }
\newlabel{_enemy_field_8cs}{{5.2}{35}{C\+:/\+Users/\+Dominiks PC/\+Documents/\+Git\+Lab/se2\+\_\+game/\+Frontend/schiffe\+\_\+versenken/\+Assets/\+Scripts/\+Enemy\+Field.cs File Reference}{section.5.2}{}}
\@writefile{toc}{\contentsline {section}{\numberline {5.3}C\discretionary {\mbox  {\scriptsize  $\hookleftarrow  $}}{}{}:/\discretionary {\mbox  {\scriptsize  $\hookleftarrow  $}}{}{}Users/\discretionary {\mbox  {\scriptsize  $\hookleftarrow  $}}{}{}Dominiks PC/\discretionary {\mbox  {\scriptsize  $\hookleftarrow  $}}{}{}Documents/\discretionary {\mbox  {\scriptsize  $\hookleftarrow  $}}{}{}Git\discretionary {\mbox  {\scriptsize  $\hookleftarrow  $}}{}{}Lab/se2\discretionary {\mbox  {\scriptsize  $\hookleftarrow  $}}{}{}\_\discretionary {\mbox  {\scriptsize  $\hookleftarrow  $}}{}{}game/\discretionary {\mbox  {\scriptsize  $\hookleftarrow  $}}{}{}Frontend/schiffe\discretionary {\mbox  {\scriptsize  $\hookleftarrow  $}}{}{}\_\discretionary {\mbox  {\scriptsize  $\hookleftarrow  $}}{}{}versenken/\discretionary {\mbox  {\scriptsize  $\hookleftarrow  $}}{}{}Assets/\discretionary {\mbox  {\scriptsize  $\hookleftarrow  $}}{}{}Scripts/\discretionary {\mbox  {\scriptsize  $\hookleftarrow  $}}{}{}Field.cs File Reference}{35}{section.5.3}\protected@file@percent }
\newlabel{_field_8cs}{{5.3}{35}{C\+:/\+Users/\+Dominiks PC/\+Documents/\+Git\+Lab/se2\+\_\+game/\+Frontend/schiffe\+\_\+versenken/\+Assets/\+Scripts/\+Field.cs File Reference}{section.5.3}{}}
\@writefile{toc}{\contentsline {section}{\numberline {5.4}C\discretionary {\mbox  {\scriptsize  $\hookleftarrow  $}}{}{}:/\discretionary {\mbox  {\scriptsize  $\hookleftarrow  $}}{}{}Users/\discretionary {\mbox  {\scriptsize  $\hookleftarrow  $}}{}{}Dominiks PC/\discretionary {\mbox  {\scriptsize  $\hookleftarrow  $}}{}{}Documents/\discretionary {\mbox  {\scriptsize  $\hookleftarrow  $}}{}{}Git\discretionary {\mbox  {\scriptsize  $\hookleftarrow  $}}{}{}Lab/se2\discretionary {\mbox  {\scriptsize  $\hookleftarrow  $}}{}{}\_\discretionary {\mbox  {\scriptsize  $\hookleftarrow  $}}{}{}game/\discretionary {\mbox  {\scriptsize  $\hookleftarrow  $}}{}{}Frontend/schiffe\discretionary {\mbox  {\scriptsize  $\hookleftarrow  $}}{}{}\_\discretionary {\mbox  {\scriptsize  $\hookleftarrow  $}}{}{}versenken/\discretionary {\mbox  {\scriptsize  $\hookleftarrow  $}}{}{}Assets/\discretionary {\mbox  {\scriptsize  $\hookleftarrow  $}}{}{}Scripts/\discretionary {\mbox  {\scriptsize  $\hookleftarrow  $}}{}{}Network\discretionary {\mbox  {\scriptsize  $\hookleftarrow  $}}{}{}Manager.cs File Reference}{36}{section.5.4}\protected@file@percent }
\newlabel{_network_manager_8cs}{{5.4}{36}{C\+:/\+Users/\+Dominiks PC/\+Documents/\+Git\+Lab/se2\+\_\+game/\+Frontend/schiffe\+\_\+versenken/\+Assets/\+Scripts/\+Network\+Manager.cs File Reference}{section.5.4}{}}
\@writefile{toc}{\contentsline {section}{\numberline {5.5}C\discretionary {\mbox  {\scriptsize  $\hookleftarrow  $}}{}{}:/\discretionary {\mbox  {\scriptsize  $\hookleftarrow  $}}{}{}Users/\discretionary {\mbox  {\scriptsize  $\hookleftarrow  $}}{}{}Dominiks PC/\discretionary {\mbox  {\scriptsize  $\hookleftarrow  $}}{}{}Documents/\discretionary {\mbox  {\scriptsize  $\hookleftarrow  $}}{}{}Git\discretionary {\mbox  {\scriptsize  $\hookleftarrow  $}}{}{}Lab/se2\discretionary {\mbox  {\scriptsize  $\hookleftarrow  $}}{}{}\_\discretionary {\mbox  {\scriptsize  $\hookleftarrow  $}}{}{}game/\discretionary {\mbox  {\scriptsize  $\hookleftarrow  $}}{}{}Frontend/schiffe\discretionary {\mbox  {\scriptsize  $\hookleftarrow  $}}{}{}\_\discretionary {\mbox  {\scriptsize  $\hookleftarrow  $}}{}{}versenken/\discretionary {\mbox  {\scriptsize  $\hookleftarrow  $}}{}{}Assets/\discretionary {\mbox  {\scriptsize  $\hookleftarrow  $}}{}{}Scripts/\discretionary {\mbox  {\scriptsize  $\hookleftarrow  $}}{}{}Player.cs File Reference}{36}{section.5.5}\protected@file@percent }
\newlabel{_player_8cs}{{5.5}{36}{C\+:/\+Users/\+Dominiks PC/\+Documents/\+Git\+Lab/se2\+\_\+game/\+Frontend/schiffe\+\_\+versenken/\+Assets/\+Scripts/\+Player.cs File Reference}{section.5.5}{}}
\@writefile{toc}{\contentsline {section}{\numberline {5.6}C\discretionary {\mbox  {\scriptsize  $\hookleftarrow  $}}{}{}:/\discretionary {\mbox  {\scriptsize  $\hookleftarrow  $}}{}{}Users/\discretionary {\mbox  {\scriptsize  $\hookleftarrow  $}}{}{}Dominiks PC/\discretionary {\mbox  {\scriptsize  $\hookleftarrow  $}}{}{}Documents/\discretionary {\mbox  {\scriptsize  $\hookleftarrow  $}}{}{}Git\discretionary {\mbox  {\scriptsize  $\hookleftarrow  $}}{}{}Lab/se2\discretionary {\mbox  {\scriptsize  $\hookleftarrow  $}}{}{}\_\discretionary {\mbox  {\scriptsize  $\hookleftarrow  $}}{}{}game/\discretionary {\mbox  {\scriptsize  $\hookleftarrow  $}}{}{}Frontend/schiffe\discretionary {\mbox  {\scriptsize  $\hookleftarrow  $}}{}{}\_\discretionary {\mbox  {\scriptsize  $\hookleftarrow  $}}{}{}versenken/\discretionary {\mbox  {\scriptsize  $\hookleftarrow  $}}{}{}Assets/\discretionary {\mbox  {\scriptsize  $\hookleftarrow  $}}{}{}Scripts/\discretionary {\mbox  {\scriptsize  $\hookleftarrow  $}}{}{}Ship.cs File Reference}{36}{section.5.6}\protected@file@percent }
\newlabel{_ship_8cs}{{5.6}{36}{C\+:/\+Users/\+Dominiks PC/\+Documents/\+Git\+Lab/se2\+\_\+game/\+Frontend/schiffe\+\_\+versenken/\+Assets/\+Scripts/\+Ship.cs File Reference}{section.5.6}{}}
\@writefile{toc}{\contentsline {chapter}{Index}{37}{section*.39}\protected@file@percent }
\gdef \@abspage@last{46}
